<?xml version="1.0" encoding="utf-8"?>
<svg xmlns="http://www.w3.org/2000/svg" xmlns:xlink="http://www.w3.org/1999/xlink">
    <symbol viewBox="0 0 16 16" id="fb" xmlns="http://www.w3.org/2000/svg">
        <path d="M16 1.714v12.572c0 .946-.768 1.714-1.714 1.714h-3.047V9.671h2.165l.31-2.414H11.24V5.714c0-.7.193-1.175 1.197-1.175h1.278V2.382a17.19 17.19 0 00-1.864-.096c-1.843 0-3.107 1.125-3.107 3.193V7.26H6.57v2.414h2.175V16H1.714A1.715 1.715 0 010 14.286V1.714C0 .768.768 0 1.714 0h12.572C15.232 0 16 .768 16 1.714z"/>
    </symbol>
    <symbol viewBox="0 0 16 16" id="fb-color" xmlns="http://www.w3.org/2000/svg">
        <path d="M16 1.714v12.572c0 .946-.768 1.714-1.714 1.714h-3.047V9.671h2.165l.31-2.414H11.24V5.714c0-.7.193-1.175 1.197-1.175h1.278V2.382a17.19 17.19 0 00-1.864-.096c-1.843 0-3.107 1.125-3.107 3.193V7.26H6.57v2.414h2.175V16H1.714A1.715 1.715 0 010 14.286V1.714C0 .768.768 0 1.714 0h12.572C15.232 0 16 .768 16 1.714z"
              fill="red"/>
    </symbol>
    <symbol viewBox="0 0 18 18" id="ig" xmlns="http://www.w3.org/2000/svg">
        <path d="M17.199 15.197a3.537 3.537 0 01-1.993 1.993c-1.38.547-4.653.42-6.178.42-1.525 0-4.803.122-6.178-.42a3.537 3.537 0 01-1.993-1.993c-.547-1.38-.42-4.654-.42-6.178 0-1.525-.122-4.804.42-6.179A3.537 3.537 0 012.85.848C4.23.3 7.503.427 9.028.427c1.525 0 4.803-.122 6.178.42A3.537 3.537 0 0117.2 2.84c.547 1.38.42 4.654.42 6.179 0 1.524.127 4.803-.42 6.178zM9.029 3.645a5.365 5.365 0 00-5.375 5.374c0 2.974 2.4 5.374 5.374 5.374 2.975 0 5.374-2.4 5.374-5.374 0-2.975-2.4-5.374-5.374-5.374zm6.846-.22a1.254 1.254 0 10-2.507 0 1.254 1.254 0 002.507 0z"/>
        <path d="M9.028 12.512A3.5 3.5 0 015.534 9.02a3.497 3.497 0 013.494-3.494 3.497 3.497 0 013.494 3.494 3.5 3.5 0 01-3.494 3.493z"/>
    </symbol>
    <symbol viewBox="0 0 25 25" id="info" xmlns="http://www.w3.org/2000/svg">
        <g fill="none" fill-rule="evenodd" stroke="#0F0F0F" stroke-width="2">
            <circle cx="12.5" cy="12.5" r="11.5"/>
            <path d="M12.5 19v-8m0-2V6"/>
        </g>
    </symbol>
    <symbol viewBox="0 0 18 14" id="mail" xmlns="http://www.w3.org/2000/svg">
        <path d="M0 3l9 4.889L18 3v11H0z"/>
        <path d="M9 5.5L1 1V0h16v1z"/>
    </symbol>
    <symbol viewBox="0 0 17 20" id="phone" xmlns="http://www.w3.org/2000/svg">
        <path d="M4.524.058c.127.022.217.05.27.084.087.052.219.31.396.774.178.463.375 1.037.593 1.721l.343 1.029c.025.065.08.191.168.377.088.186.15.35.185.49.036.14.044.269.024.387-.036.213-.27.458-.703.735-.432.276-.867.547-1.304.81-.436.264-.67.49-.702.68a.902.902 0 00.011.303 2.833 2.833 0 00.18.626c.053.143.088.235.105.274.438 1.283.998 2.42 1.68 3.412.683.992 1.54 1.914 2.573 2.767a7.2 7.2 0 00.217.193c.114.1.203.173.266.22.063.049.146.103.249.164.102.06.194.098.275.112.15.027.364-.06.641-.26.277-.201.544-.428.8-.681.257-.253.53-.48.819-.678.289-.198.52-.282.693-.252a.88.88 0 01.348.153c.117.082.246.196.388.343.142.147.238.243.29.289a37.728 37.728 0 011.161.936c.24.2.487.406.743.616.256.21.465.398.626.567.162.169.25.285.263.348a.86.86 0 01-.013.29c-.096.568-.323 1.142-.683 1.724-.334.501-.959.878-1.874 1.13-.916.252-1.703.32-2.36.204a4.253 4.253 0 01-.581-.149 9.12 9.12 0 01-.513-.182 5.72 5.72 0 01-.545-.26 9.587 9.587 0 01-.48-.268 59.884 59.884 0 00-1.02-.61c-1.773-1.044-3.407-2.652-4.9-4.822C1.657 11.484.727 9.367.362 7.305a64.78 64.78 0 00-.219-1.19 10.336 10.336 0 01-.142-1.167 9.79 9.79 0 01.005-.556c.007-.218.026-.422.058-.611.113-.674.44-1.411.978-2.21C1.582.77 2.137.292 2.71.138c.655-.152 1.26-.18 1.814-.081z"/>
    </symbol>
    <symbol viewBox="0 0 45 74" id="recognition" xmlns="http://www.w3.org/2000/svg">
        <path d="M22.458 61.966c11.298 0 20.457-9.2 20.457-20.549 0-7.566-6.819-20.371-20.457-38.417C8.819 21.046 2 33.851 2 41.417c0 11.35 9.16 20.55 20.458 20.55zm.602-45.729V74m.427-20.458l13.237-12.034m-13.237 0l9.627-8.423m-9.627-2.233l6.017-6.017"
              stroke-width="3"/>
    </symbol>
    <symbol viewBox="0 0 20 12" id="vk" xmlns="http://www.w3.org/2000/svg">
        <path d="M19.972.868c.156.449-.333 1.5-1.562 3.22-2.02 2.825-2.239 2.562-.573 4.193 1.604 1.566 1.937 2.322 1.989 2.42 0 0 .666 1.227-.74 1.238l-2.665.044c-.573.12-1.333-.427-1.333-.427-1-.723-1.937-2.596-2.666-2.355 0 0-.75.252-.728 1.938.01.362-.157.559-.157.559s-.187.208-.552.24H9.788c-2.635.176-4.957-2.375-4.957-2.375S2.291 6.803.062 1.295C-.084.933.072.758.072.758S.23.55.667.55L3.52.528c.271.044.458.197.458.197s.167.12.25.35A22.32 22.32 0 005.3 3.42c1.04 2.255 1.75 2.64 2.155 2.41 0 0 .531-.34.417-3.067-.042-.985-.302-1.434-.302-1.434-.24-.34-.687-.438-.885-.471-.156-.022.104-.416.448-.592.51-.262 1.416-.273 2.488-.262.844.01 1.083.065 1.406.142.99.252.656 1.216.656 3.537 0 .745-.135 1.785.375 2.125.219.153.76.021 2.093-2.366 0 0 .625-1.139 1.114-2.464.083-.24.26-.34.26-.34s.167-.098.396-.065l3-.022c.905-.12 1.05.318 1.05.318z"/>
    </symbol>
</svg>